Reproducible Research Course Project 1
…
##What is mean total numbe rof steps takn per day?

Calculate the toal number of steps taken per day

activity$date <- as.Date(activity$date)

total_steps_per_day <- activity %>% group_by(date) %>% summarize(total_steps = sum(steps, na.rm = T)) 

print(total_steps_per_day)

## # A tibble: 61 x 2
##    date       total_steps
##    <date>           <int>
##  1 2012-10-01           0
##  2 2012-10-02         126
##  3 2012-10-03       11352
##  4 2012-10-04       12116
##  5 2012-10-05       13294
##  6 2012-10-06       15420
##  7 2012-10-07       11015
##  8 2012-10-08           0
##  9 2012-10-09       12811
## 10 2012-10-10        9900
## #  with 51 more rows
…
#Need to change date format or else plot will not work
activity$date <- as.Date(activity$date)
activity[is.na(steps), "steps"] <- activity[, c(lapply(.SD, mean, na.rm = T)), .SDcols = c("steps")]

## Warning in `[<-.data.table`(`*tmp*`, is.na(steps), "steps", value =
## structure(list(: 37.382600 (type 'double') at RHS position 1 truncated
## (precision lost) when assigning to type 'integer' (column 1 named 'steps')

Make a histogram of the total number of steps taken each day and Calculate and report the mean and median total number of steps taken per day. Do these values differ from the estimates from the first part of the assignment? What is the impact of imputing missing data on the estimates of the total daily number of steps?

total_steps_per_day_2 <- activity %>% group_by(date) %>% summarize(total_steps = sum(steps, na.rm = T))
total_steps_per_day_2

## # A tibble: 61 x 2
##    date       total_steps
##    <date>           <int>
##  1 2012-10-01       10656
##  2 2012-10-02         126
##  3 2012-10-03       11352
##  4 2012-10-04       12116
##  5 2012-10-05       13294
##  6 2012-10-06       15420
##  7 2012-10-07       11015
##  8 2012-10-08       10656
##  9 2012-10-09       12811
## 10 2012-10-10        9900
## #  with 51 more rows
…
